GLS_Simulation/fft_sim/irun.log
irun(64): 15.20-s086: (c) Copyright 1995-2020 Cadence Design Systems, Inc.
TOOL:	irun(64)	15.20-s086: Started on Apr 15, 2026 at 02:07:04 IST
irun
	-f ./incisive_commands.f
		-access +rwc
		-gui
		-timescale 1ns/1ps
		adder.v
		alu.v
		branch.v
		control_decoder.v
		control_unit.v
		Core.v
		data_memory.v
		data_memory_top.v
		Decode.v
		decode_pipe.v
		Execute.v
		execute_forwarding.v
		execute_pipe.v
		Fetch.v
		fetch_pipe.v
		immediate_gen.v
		instruc_mem_top.v
		instruction_memory.v
		memory_stage.v
		memstage_pipe.v
		Microprocessor.v
		microprocessor_pad_top.v
		microprocessor_pad_top_tb.v
		mux1_2.v
		mux2_4.v
		program_counter.v
		register_file.v
		type_decoder.v
		wrapper_memory.v
		Write_back.v
		/opt/tools/Cadence/Cadence_lib/scl_pdk_v3/SCLPDK_V3.0_KIT/scl180/iopad/cio150/6M1L/verilog/tsl18cio150/zero/pc3d01.v
		/opt/tools/Cadence/Cadence_lib/scl_pdk_v3/SCLPDK_V3.0_KIT/scl180/iopad/cio150/6M1L/verilog/tsl18cio150/zero/pc3o05.v
		/opt/tools/Cadence/Cadence_lib/scl_pdk_v3/SCLPDK_V3.0_KIT/scl180/iopad/cio150/6M1L/verilog/tsl18cio150/zero/pvdi.v
		/opt/tools/Cadence/Cadence_lib/scl_pdk_v3/SCLPDK_V3.0_KIT/scl180/iopad/cio150/6M1L/verilog/tsl18cio150/zero/pv0i.v
		/opt/tools/Cadence/Cadence_lib/scl_pdk_v3/SCLPDK_V3.0_KIT/scl180/iopad/cio150/6M1L/verilog/tsl18cio150/zero/pvda.v
		/opt/tools/Cadence/Cadence_lib/scl_pdk_v3/SCLPDK_V3.0_KIT/scl180/iopad/cio150/6M1L/verilog/tsl18cio150/zero/pv0a.v
		Caching library 'work' ....... Done
	Elaborating the design hierarchy:
    pvdi pvdi_VDD_CORE_1();
                       |
ncelab: *W,CUVWSP (./microprocessor_pad_top.v,73|23): 1 output port was not connected:
ncelab: (/opt/tools/Cadence/Cadence_lib/scl_pdk_v3/SCLPDK_V3.0_KIT/scl180/iopad/cio150/6M1L/verilog/tsl18cio150/zero/pvdi.v,30): VDD

    pv0i pv0i_VSS_CORE_1();
                       |
ncelab: *W,CUVWSP (./microprocessor_pad_top.v,74|23): 1 output port was not connected:
ncelab: (/opt/tools/Cadence/Cadence_lib/scl_pdk_v3/SCLPDK_V3.0_KIT/scl180/iopad/cio150/6M1L/verilog/tsl18cio150/zero/pv0i.v,30): VSS

    pvda pvda_VDDO_CORE_1();
                        |
ncelab: *W,CUVWSP (./microprocessor_pad_top.v,75|24): 1 output port was not connected:
ncelab: (/opt/tools/Cadence/Cadence_lib/scl_pdk_v3/SCLPDK_V3.0_KIT/scl180/iopad/cio150/6M1L/verilog/tsl18cio150/zero/pvda.v,30): VDDO

    pv0a pv0a_VSSO_CORE_1();
                        |
ncelab: *W,CUVWSP (./microprocessor_pad_top.v,76|24): 1 output port was not connected:
ncelab: (/opt/tools/Cadence/Cadence_lib/scl_pdk_v3/SCLPDK_V3.0_KIT/scl180/iopad/cio150/6M1L/verilog/tsl18cio150/zero/pv0a.v,30): VSSO

    pvdi pvdi_VDD_CORE_2();
                       |
ncelab: *W,CUVWSP (./microprocessor_pad_top.v,78|23): 1 output port was not connected:
ncelab: (/opt/tools/Cadence/Cadence_lib/scl_pdk_v3/SCLPDK_V3.0_KIT/scl180/iopad/cio150/6M1L/verilog/tsl18cio150/zero/pvdi.v,30): VDD

    pv0i pv0i_VSS_CORE_2();
                       |
ncelab: *W,CUVWSP (./microprocessor_pad_top.v,79|23): 1 output port was not connected:
ncelab: (/opt/tools/Cadence/Cadence_lib/scl_pdk_v3/SCLPDK_V3.0_KIT/scl180/iopad/cio150/6M1L/verilog/tsl18cio150/zero/pv0i.v,30): VSS

    pvda pvda_VDDO_CORE_2();
                        |
ncelab: *W,CUVWSP (./microprocessor_pad_top.v,80|24): 1 output port was not connected:
ncelab: (/opt/tools/Cadence/Cadence_lib/scl_pdk_v3/SCLPDK_V3.0_KIT/scl180/iopad/cio150/6M1L/verilog/tsl18cio150/zero/pvda.v,30): VDDO

    pv0a pv0a_VSSO_CORE_2();
                        |
ncelab: *W,CUVWSP (./microprocessor_pad_top.v,81|24): 1 output port was not connected:
ncelab: (/opt/tools/Cadence/Cadence_lib/scl_pdk_v3/SCLPDK_V3.0_KIT/scl180/iopad/cio150/6M1L/verilog/tsl18cio150/zero/pv0a.v,30): VSSO

    pvdi pvdi_VDD_CORE_3();
                       |
ncelab: *W,CUVWSP (./microprocessor_pad_top.v,83|23): 1 output port was not connected:
ncelab: (/opt/tools/Cadence/Cadence_lib/scl_pdk_v3/SCLPDK_V3.0_KIT/scl180/iopad/cio150/6M1L/verilog/tsl18cio150/zero/pvdi.v,30): VDD

    pv0i pv0i_VSS_CORE_3();
                       |
ncelab: *W,CUVWSP (./microprocessor_pad_top.v,84|23): 1 output port was not connected:
ncelab: (/opt/tools/Cadence/Cadence_lib/scl_pdk_v3/SCLPDK_V3.0_KIT/scl180/iopad/cio150/6M1L/verilog/tsl18cio150/zero/pv0i.v,30): VSS

    pvda pvda_VDDO_CORE_3();
                        |
ncelab: *W,CUVWSP (./microprocessor_pad_top.v,85|24): 1 output port was not connected:
ncelab: (/opt/tools/Cadence/Cadence_lib/scl_pdk_v3/SCLPDK_V3.0_KIT/scl180/iopad/cio150/6M1L/verilog/tsl18cio150/zero/pvda.v,30): VDDO

    pv0a pv0a_VSSO_CORE_3();
                        |
ncelab: *W,CUVWSP (./microprocessor_pad_top.v,86|24): 1 output port was not connected:
ncelab: (/opt/tools/Cadence/Cadence_lib/scl_pdk_v3/SCLPDK_V3.0_KIT/scl180/iopad/cio150/6M1L/verilog/tsl18cio150/zero/pv0a.v,30): VSSO

    pvdi pvdi_VDD_CORE_4();
                       |
ncelab: *W,CUVWSP (./microprocessor_pad_top.v,88|23): 1 output port was not connected:
ncelab: (/opt/tools/Cadence/Cadence_lib/scl_pdk_v3/SCLPDK_V3.0_KIT/scl180/iopad/cio150/6M1L/verilog/tsl18cio150/zero/pvdi.v,30): VDD

    pv0i pv0i_VSS_CORE_4();
                       |
ncelab: *W,CUVWSP (./microprocessor_pad_top.v,89|23): 1 output port was not connected:
ncelab: (/opt/tools/Cadence/Cadence_lib/scl_pdk_v3/SCLPDK_V3.0_KIT/scl180/iopad/cio150/6M1L/verilog/tsl18cio150/zero/pv0i.v,30): VSS

    pvda pvda_VDDO_CORE_4();
                        |
ncelab: *W,CUVWSP (./microprocessor_pad_top.v,90|24): 1 output port was not connected:
ncelab: (/opt/tools/Cadence/Cadence_lib/scl_pdk_v3/SCLPDK_V3.0_KIT/scl180/iopad/cio150/6M1L/verilog/tsl18cio150/zero/pvda.v,30): VDDO

    pv0a pv0a_VSSO_CORE_4();
                        |
ncelab: *W,CUVWSP (./microprocessor_pad_top.v,91|24): 1 output port was not connected:
ncelab: (/opt/tools/Cadence/Cadence_lib/scl_pdk_v3/SCLPDK_V3.0_KIT/scl180/iopad/cio150/6M1L/verilog/tsl18cio150/zero/pv0a.v,30): VSSO

	Top level design units:
		microprocessor_pad_top_tb
	Building instance overlay tables: .................... Done
	Building instance specific data structures.
	Loading native compiled code:     .................... Done
	Design hierarchy summary:
		                 Instances  Unique
		Modules:                90      37
		Primitives:             55       3
		Timing outputs:         39       1
		Registers:              98      98
		Scalar wires:           88       -
		Expanded wires:        132       6
		Vectored wires:         74       -
		Always blocks:          28      28
		Initial blocks:          5       5
		Cont. assignments:      34      78
		Pseudo assignments:     11      11
		Simulation timescale:  1ps
	Writing initial simulation snapshot: work.microprocessor_pad_top_tb:v

-------------------------------------
Relinquished control to SimVision...
ncsim> 
ncsim> source /opt/tools/Cadence/Cadence_tools/INCISIVE152/tools/inca/files/ncsimrc
ncsim> database -open waves -into waves.shm -default
Created default SHM database waves
ncsim> probe -create -shm microprocessor_pad_top_tb.tb_CLKOUT_pad microprocessor_pad_top_tb.tb_clk_pad microprocessor_pad_top_tb.tb_dbg_out_pad microprocessor_pad_top_tb.tb_dbg_sel_pad microprocessor_pad_top_tb.tb_mem_bank_sel_pad microprocessor_pad_top_tb.tb_rst_pad microprocessor_pad_top_tb.uut.u_microprocessor_core.u_core.instruction_fetch
Created probe 1
ncsim> reset
Loaded snapshot work.microprocessor_pad_top_tb:v
ncsim> run
[0] Applying Reset...
Time: 0 | RST: 1 | BankSel: 00 | DbgSel: 00 | DBG_OUT: xxxxxxxx
Time: 15000 | RST: 0 | BankSel: 00 | DbgSel: 00 | DBG_OUT: 00000000
[35000] Reset Complete. CPU running...
Time: 35000 | RST: 1 | BankSel: 00 | DbgSel: 00 | DBG_OUT: 00000000
[135000] Switching to Debug View 1...
Time: 135000 | RST: 1 | BankSel: 00 | DbgSel: 01 | DBG_OUT: 00000000
Time: 145000 | RST: 1 | BankSel: 00 | DbgSel: 01 | DBG_OUT: 4701800a
Time: 155000 | RST: 1 | BankSel: 00 | DbgSel: 01 | DBG_OUT: 4f01800b
Time: 165000 | RST: 1 | BankSel: 00 | DbgSel: 01 | DBG_OUT: 5701800c
Time: 175000 | RST: 1 | BankSel: 00 | DbgSel: 01 | DBG_OUT: 5f01800d
Time: 185000 | RST: 1 | BankSel: 00 | DbgSel: 01 | DBG_OUT: 6621800e
Time: 195000 | RST: 1 | BankSel: 00 | DbgSel: 01 | DBG_OUT: 6ca7800f
Time: 205000 | RST: 1 | BankSel: 00 | DbgSel: 01 | DBG_OUT: 00a78010
Time: 215000 | RST: 1 | BankSel: 00 | DbgSel: 01 | DBG_OUT: 20a78011
Time: 225000 | RST: 1 | BankSel: 00 | DbgSel: 01 | DBG_OUT: 40a78012
[235000] Switching to Debug View 2...
Time: 235000 | RST: 1 | BankSel: 00 | DbgSel: 10 | DBG_OUT: 61878013
Time: 245000 | RST: 1 | BankSel: 00 | DbgSel: 10 | DBG_OUT: 00300837
Time: 255000 | RST: 1 | BankSel: 00 | DbgSel: 10 | DBG_OUT: 00001897
Time: 265000 | RST: 1 | BankSel: 00 | DbgSel: 10 | DBG_OUT: 00002917
Time: 275000 | RST: 1 | BankSel: 00 | DbgSel: 10 | DBG_OUT: 00108263
Time: 285000 | RST: 1 | BankSel: 00 | DbgSel: 10 | DBG_OUT: 00311263
Time: 295000 | RST: 1 | BankSel: 00 | DbgSel: 10 | DBG_OUT: 00000013
Time: 305000 | RST: 1 | BankSel: 00 | DbgSel: 10 | DBG_OUT: 00311263
Time: 315000 | RST: 1 | BankSel: 00 | DbgSel: 10 | DBG_OUT: 0020c263
Time: 325000 | RST: 1 | BankSel: 00 | DbgSel: 10 | DBG_OUT: 00000013
[335000] Switching to Memory Bank 1...
Time: 335000 | RST: 1 | BankSel: 01 | DbgSel: 00 | DBG_OUT: 0020c263
Time: 345000 | RST: 1 | BankSel: 01 | DbgSel: 00 | DBG_OUT: 3c04f5a0
[435000] Switching to Memory Bank 2...
Time: 435000 | RST: 1 | BankSel: 10 | DbgSel: 00 | DBG_OUT: 3c04f5a0
[535000] Switching to Memory Bank 3...
Time: 535000 | RST: 1 | BankSel: 11 | DbgSel: 00 | DBG_OUT: 3c04f5a0
[735000] Simulation Complete.
Simulation complete via $finish(1) at time 735 NS + 0
./microprocessor_pad_top_tb.v:88         $finish;
ncsim> probe -create -shm microprocessor_pad_top_tb.uut.u_microprocessor_core.u_core.instruction_decode microprocessor_pad_top_tb.uut.u_microprocessor_core.u_core.instruction_execute microprocessor_pad_top_tb.uut.u_microprocessor_core.u_core.instruction_memstage microprocessor_pad_top_tb.uut.u_microprocessor_core.u_core.instruction_wb microprocessor_pad_top_tb.uut.u_microprocessor_core.u_core.u_decodestage.u_regfile0.register[1] microprocessor_pad_top_tb.uut.u_microprocessor_core.u_core.u_decodestage.u_regfile0.register[2] microprocessor_pad_top_tb.uut.u_microprocessor_core.u_core.u_decodestage.u_regfile0.register[3] microprocessor_pad_top_tb.uut.u_microprocessor_core.u_core.u_decodestage.u_regfile0.register[4] microprocessor_pad_top_tb.uut.u_microprocessor_core.u_core.u_decodestage.u_regfile0.register[5] microprocessor_pad_top_tb.uut.u_microprocessor_core.u_core.u_decodestage.u_regfile0.register[6] microprocessor_pad_top_tb.uut.u_microprocessor_core.u_core.u_decodestage.u_regfile0.register[7] microprocessor_pad_top_tb.uut.u_microprocessor_core.u_core.u_decodestage.u_regfile0.register[8] microprocessor_pad_top_tb.uut.u_microprocessor_core.u_core.u_decodestage.u_regfile0.register[9] microprocessor_pad_top_tb.uut.u_microprocessor_core.u_core.u_decodestage.u_regfile0.register[10] microprocessor_pad_top_tb.uut.u_microprocessor_core.u_core.u_decodestage.u_regfile0.register[11] microprocessor_pad_top_tb.uut.u_microprocessor_core.u_core.u_decodestage.u_regfile0.register[12] microprocessor_pad_top_tb.uut.u_microprocessor_core.u_core.u_decodestage.u_regfile0.register[13] microprocessor_pad_top_tb.uut.u_microprocessor_core.u_core.u_decodestage.u_regfile0.register[14] microprocessor_pad_top_tb.uut.u_microprocessor_core.u_core.u_decodestage.u_regfile0.register[15]
Created probe 2
ncsim> reset
Loaded snapshot work.microprocessor_pad_top_tb:v
ncsim> run
[0] Applying Reset...
Time: 0 | RST: 1 | BankSel: 00 | DbgSel: 00 | DBG_OUT: xxxxxxxx
Time: 15000 | RST: 0 | BankSel: 00 | DbgSel: 00 | DBG_OUT: 00000000
[35000] Reset Complete. CPU running...
Time: 35000 | RST: 1 | BankSel: 00 | DbgSel: 00 | DBG_OUT: 00000000
[135000] Switching to Debug View 1...
Time: 135000 | RST: 1 | BankSel: 00 | DbgSel: 01 | DBG_OUT: 00000000
Time: 145000 | RST: 1 | BankSel: 00 | DbgSel: 01 | DBG_OUT: 4701800a
Time: 155000 | RST: 1 | BankSel: 00 | DbgSel: 01 | DBG_OUT: 4f01800b
Time: 165000 | RST: 1 | BankSel: 00 | DbgSel: 01 | DBG_OUT: 5701800c
Time: 175000 | RST: 1 | BankSel: 00 | DbgSel: 01 | DBG_OUT: 5f01800d
Time: 185000 | RST: 1 | BankSel: 00 | DbgSel: 01 | DBG_OUT: 6621800e
Time: 195000 | RST: 1 | BankSel: 00 | DbgSel: 01 | DBG_OUT: 6ca7800f
Time: 205000 | RST: 1 | BankSel: 00 | DbgSel: 01 | DBG_OUT: 00a78010
Time: 215000 | RST: 1 | BankSel: 00 | DbgSel: 01 | DBG_OUT: 20a78011
Time: 225000 | RST: 1 | BankSel: 00 | DbgSel: 01 | DBG_OUT: 40a78012
[235000] Switching to Debug View 2...
Time: 235000 | RST: 1 | BankSel: 00 | DbgSel: 10 | DBG_OUT: 61878013
Time: 245000 | RST: 1 | BankSel: 00 | DbgSel: 10 | DBG_OUT: 00300837
Time: 255000 | RST: 1 | BankSel: 00 | DbgSel: 10 | DBG_OUT: 00001897
Time: 265000 | RST: 1 | BankSel: 00 | DbgSel: 10 | DBG_OUT: 00002917
Time: 275000 | RST: 1 | BankSel: 00 | DbgSel: 10 | DBG_OUT: 00108263
Time: 285000 | RST: 1 | BankSel: 00 | DbgSel: 10 | DBG_OUT: 00311263
Time: 295000 | RST: 1 | BankSel: 00 | DbgSel: 10 | DBG_OUT: 00000013
Time: 305000 | RST: 1 | BankSel: 00 | DbgSel: 10 | DBG_OUT: 00311263
Time: 315000 | RST: 1 | BankSel: 00 | DbgSel: 10 | DBG_OUT: 0020c263
Time: 325000 | RST: 1 | BankSel: 00 | DbgSel: 10 | DBG_OUT: 00000013
[335000] Switching to Memory Bank 1...
Time: 335000 | RST: 1 | BankSel: 01 | DbgSel: 00 | DBG_OUT: 0020c263
Time: 345000 | RST: 1 | BankSel: 01 | DbgSel: 00 | DBG_OUT: 3c04f5a0
[435000] Switching to Memory Bank 2...
Time: 435000 | RST: 1 | BankSel: 10 | DbgSel: 00 | DBG_OUT: 3c04f5a0
[535000] Switching to Memory Bank 3...
Time: 535000 | RST: 1 | BankSel: 11 | DbgSel: 00 | DBG_OUT: 3c04f5a0
[735000] Simulation Complete.
Simulation complete via $finish(1) at time 735 NS + 0
./microprocessor_pad_top_tb.v:88         $finish;
ncsim> probe -create -shm microprocessor_pad_top_tb.uut.u_microprocessor_core.u_core.u_fetchstage.u_pc0.pre_address_pc
Created probe 3
ncsim> reset
Loaded snapshot work.microprocessor_pad_top_tb:v
ncsim> run
[0] Applying Reset...
Time: 0 | RST: 1 | BankSel: 00 | DbgSel: 00 | DBG_OUT: xxxxxxxx
Time: 15000 | RST: 0 | BankSel: 00 | DbgSel: 00 | DBG_OUT: 00000000
[35000] Reset Complete. CPU running...
Time: 35000 | RST: 1 | BankSel: 00 | DbgSel: 00 | DBG_OUT: 00000000
[135000] Switching to Debug View 1...
Time: 135000 | RST: 1 | BankSel: 00 | DbgSel: 01 | DBG_OUT: 00000000
Time: 145000 | RST: 1 | BankSel: 00 | DbgSel: 01 | DBG_OUT: 4701800a
Time: 155000 | RST: 1 | BankSel: 00 | DbgSel: 01 | DBG_OUT: 4f01800b
Time: 165000 | RST: 1 | BankSel: 00 | DbgSel: 01 | DBG_OUT: 5701800c
Time: 175000 | RST: 1 | BankSel: 00 | DbgSel: 01 | DBG_OUT: 5f01800d
Time: 185000 | RST: 1 | BankSel: 00 | DbgSel: 01 | DBG_OUT: 6621800e
Time: 195000 | RST: 1 | BankSel: 00 | DbgSel: 01 | DBG_OUT: 6ca7800f
Time: 205000 | RST: 1 | BankSel: 00 | DbgSel: 01 | DBG_OUT: 00a78010
Time: 215000 | RST: 1 | BankSel: 00 | DbgSel: 01 | DBG_OUT: 20a78011
Time: 225000 | RST: 1 | BankSel: 00 | DbgSel: 01 | DBG_OUT: 40a78012
[235000] Switching to Debug View 2...
Time: 235000 | RST: 1 | BankSel: 00 | DbgSel: 10 | DBG_OUT: 61878013
Time: 245000 | RST: 1 | BankSel: 00 | DbgSel: 10 | DBG_OUT: 00300837
Time: 255000 | RST: 1 | BankSel: 00 | DbgSel: 10 | DBG_OUT: 00001897
Time: 265000 | RST: 1 | BankSel: 00 | DbgSel: 10 | DBG_OUT: 00002917
Time: 275000 | RST: 1 | BankSel: 00 | DbgSel: 10 | DBG_OUT: 00108263
Time: 285000 | RST: 1 | BankSel: 00 | DbgSel: 10 | DBG_OUT: 00311263
Time: 295000 | RST: 1 | BankSel: 00 | DbgSel: 10 | DBG_OUT: 00000013
Time: 305000 | RST: 1 | BankSel: 00 | DbgSel: 10 | DBG_OUT: 00311263
Time: 315000 | RST: 1 | BankSel: 00 | DbgSel: 10 | DBG_OUT: 0020c263
Time: 325000 | RST: 1 | BankSel: 00 | DbgSel: 10 | DBG_OUT: 00000013
[335000] Switching to Memory Bank 1...
Time: 335000 | RST: 1 | BankSel: 01 | DbgSel: 00 | DBG_OUT: 0020c263
Time: 345000 | RST: 1 | BankSel: 01 | DbgSel: 00 | DBG_OUT: 3c04f5a0
[435000] Switching to Memory Bank 2...
Time: 435000 | RST: 1 | BankSel: 10 | DbgSel: 00 | DBG_OUT: 3c04f5a0
[535000] Switching to Memory Bank 3...
Time: 535000 | RST: 1 | BankSel: 11 | DbgSel: 00 | DBG_OUT: 3c04f5a0
[735000] Simulation Complete.
Simulation complete via $finish(1) at time 735 NS + 0
./microprocessor_pad_top_tb.v:88         $finish;
ncsim> probe -create -shm microprocessor_pad_top_tb.uut.u_microprocessor_core.u_core.u_decodestage.u_regfile0.register[16] microprocessor_pad_top_tb.uut.u_microprocessor_core.u_core.u_decodestage.u_regfile0.register[17] microprocessor_pad_top_tb.uut.u_microprocessor_core.u_core.u_decodestage.u_regfile0.register[18] microprocessor_pad_top_tb.uut.u_microprocessor_core.u_core.u_decodestage.u_regfile0.register[19] microprocessor_pad_top_tb.uut.u_microprocessor_core.u_core.u_decodestage.u_regfile0.register[20] microprocessor_pad_top_tb.uut.u_microprocessor_core.u_core.u_decodestage.u_regfile0.register[21] microprocessor_pad_top_tb.uut.u_microprocessor_core.u_core.u_decodestage.u_regfile0.register[22]
Created probe 4
ncsim> reset
Loaded snapshot work.microprocessor_pad_top_tb:v
ncsim> run
[0] Applying Reset...
Time: 0 | RST: 1 | BankSel: 00 | DbgSel: 00 | DBG_OUT: xxxxxxxx
Time: 15000 | RST: 0 | BankSel: 00 | DbgSel: 00 | DBG_OUT: 00000000
[35000] Reset Complete. CPU running...
Time: 35000 | RST: 1 | BankSel: 00 | DbgSel: 00 | DBG_OUT: 00000000
[135000] Switching to Debug View 1...
Time: 135000 | RST: 1 | BankSel: 00 | DbgSel: 01 | DBG_OUT: 00000000
Time: 145000 | RST: 1 | BankSel: 00 | DbgSel: 01 | DBG_OUT: 4701800a
Time: 155000 | RST: 1 | BankSel: 00 | DbgSel: 01 | DBG_OUT: 4f01800b
Time: 165000 | RST: 1 | BankSel: 00 | DbgSel: 01 | DBG_OUT: 5701800c
Time: 175000 | RST: 1 | BankSel: 00 | DbgSel: 01 | DBG_OUT: 5f01800d
Time: 185000 | RST: 1 | BankSel: 00 | DbgSel: 01 | DBG_OUT: 6621800e
Time: 195000 | RST: 1 | BankSel: 00 | DbgSel: 01 | DBG_OUT: 6ca7800f
Time: 205000 | RST: 1 | BankSel: 00 | DbgSel: 01 | DBG_OUT: 00a78010
Time: 215000 | RST: 1 | BankSel: 00 | DbgSel: 01 | DBG_OUT: 20a78011
Time: 225000 | RST: 1 | BankSel: 00 | DbgSel: 01 | DBG_OUT: 40a78012
[235000] Switching to Debug View 2...
Time: 235000 | RST: 1 | BankSel: 00 | DbgSel: 10 | DBG_OUT: 61878013
Time: 245000 | RST: 1 | BankSel: 00 | DbgSel: 10 | DBG_OUT: 00300837
Time: 255000 | RST: 1 | BankSel: 00 | DbgSel: 10 | DBG_OUT: 00001897
Time: 265000 | RST: 1 | BankSel: 00 | DbgSel: 10 | DBG_OUT: 00002917
Time: 275000 | RST: 1 | BankSel: 00 | DbgSel: 10 | DBG_OUT: 00108263
Time: 285000 | RST: 1 | BankSel: 00 | DbgSel: 10 | DBG_OUT: 00311263
Time: 295000 | RST: 1 | BankSel: 00 | DbgSel: 10 | DBG_OUT: 00000013
Time: 305000 | RST: 1 | BankSel: 00 | DbgSel: 10 | DBG_OUT: 00311263
Time: 315000 | RST: 1 | BankSel: 00 | DbgSel: 10 | DBG_OUT: 0020c263
Time: 325000 | RST: 1 | BankSel: 00 | DbgSel: 10 | DBG_OUT: 00000013
[335000] Switching to Memory Bank 1...
Time: 335000 | RST: 1 | BankSel: 01 | DbgSel: 00 | DBG_OUT: 0020c263
Time: 345000 | RST: 1 | BankSel: 01 | DbgSel: 00 | DBG_OUT: 3c04f5a0
[435000] Switching to Memory Bank 2...
Time: 435000 | RST: 1 | BankSel: 10 | DbgSel: 00 | DBG_OUT: 3c04f5a0
[535000] Switching to Memory Bank 3...
Time: 535000 | RST: 1 | BankSel: 11 | DbgSel: 00 | DBG_OUT: 3c04f5a0
[735000] Simulation Complete.
Simulation complete via $finish(1) at time 735 NS + 0
./microprocessor_pad_top_tb.v:88         $finish;
ncsim> TOOL:	irun(64)	15.20-s086: Exiting on Apr 15, 2026 at 02:57:12 IST  (total: 00:50:08)
